================================================================================
SOFTWARE DESIGN DOCUMENT (SDD) - MVP VERSION
IterativStartups - AI-Powered Business Innovation Platform
================================================================================

Version: 1.0.0 (MVP)
Date: October 11, 2025
Status: MVP Development
Author: IterativStartups Development Team

================================================================================
TABLE OF CONTENTS
================================================================================

1. EXECUTIVE SUMMARY
2. SYSTEM OVERVIEW
3. MVP SCOPE & FEATURES
4. ARCHITECTURE DESIGN
5. COMPONENT DESIGN
6. DATA DESIGN
7. API DESIGN
8. SECURITY DESIGN
9. DEPLOYMENT ARCHITECTURE
10. TECHNOLOGY STACK
11. DEVELOPMENT ROADMAP
12. TESTING STRATEGY
13. PERFORMANCE REQUIREMENTS
14. MAINTENANCE & SUPPORT

================================================================================
1. EXECUTIVE SUMMARY
================================================================================

1.1 PURPOSE
-----------
This Software Design Document describes the architecture and design of the 
Minimum Viable Product (MVP) for IterativStartups, an AI-powered business 
innovation platform that helps entrepreneurs develop, analyze, and manage 
their business plans with AI assistance.

1.2 MVP VISION
--------------
The MVP focuses on delivering core value to entrepreneurs by providing:
- AI-powered business plan creation and analysis
- Interactive business planning tools
- Basic user authentication and data management
- Responsive web interface
- Azure OpenAI integration for intelligent insights

1.3 KEY STAKEHOLDERS
--------------------
Primary Users (MVP):
- Entrepreneurs: Business plan development, AI analysis, strategic guidance
- Platform Administrators: User management, system monitoring

Future Users (Post-MVP):
- Investors, Lenders, Grantors, Partners, Team Members

1.4 SUCCESS METRICS
-------------------
- User Registration: 100+ entrepreneurs in first 3 months
- Business Plans Created: 50+ complete plans
- AI Interactions: 500+ AI-assisted sessions
- User Satisfaction: 4.0+ rating (out of 5)
- System Uptime: 99%+ availability

================================================================================
2. SYSTEM OVERVIEW
================================================================================

2.1 SYSTEM DESCRIPTION
----------------------
IterativStartups MVP is a full-stack web application that combines:
- React-based frontend with modern UI components
- Express.js backend with RESTful API
- MongoDB database for data persistence
- Azure OpenAI for AI-powered features
- Azure Cosmos DB for scalable cloud storage

2.2 CORE CAPABILITIES (MVP)
----------------------------
✓ User Authentication (Google OAuth, Azure AD)
✓ Business Plan Management (CRUD operations)
✓ AI Business Advisor Agent
✓ Financial Projections Calculator
✓ Market Analysis Tools
✓ Document Management
✓ Real-time Collaboration (basic)
✓ Responsive Dashboard

2.3 OUT OF SCOPE (POST-MVP)
----------------------------
✗ Multiple AI Agent Types (Investor, Lender, etc.)
✗ Design Thinking Tools Suite
✗ Advanced Analytics & Reporting
✗ Mobile Native Apps
✗ Offline Mode
✗ Multi-language Support
✗ Payment Integration

================================================================================
3. MVP SCOPE & FEATURES
================================================================================

3.1 PHASE 1: CORE FEATURES (WEEKS 1-4)
---------------------------------------

Feature 1: User Authentication & Profile
- Google OAuth 2.0 integration
- Azure AD authentication
- User profile management
- Session management
- Password reset functionality

Feature 2: Business Plan Builder
- Structured business plan template
- Section-by-section editing
- Auto-save functionality
- Version history (basic)
- Export to PDF

Feature 3: AI Business Advisor
- Strategic planning assistance
- Market analysis generation
- Competitive analysis
- SWOT analysis
- Business model recommendations

Feature 4: Financial Modeling
- Revenue projections (3-5 years)
- Expense tracking
- Cash flow analysis
- Break-even calculator
- Financial charts and graphs

Feature 5: Dashboard
- Business plan overview
- Key metrics display
- Recent activities
- AI insights summary
- Quick actions menu

3.2 PHASE 2: ENHANCEMENT FEATURES (WEEKS 5-8)
----------------------------------------------

Feature 6: Document Management
- File upload (PDF, DOCX, XLSX)
- Document categorization
- Search functionality
- Sharing capabilities

Feature 7: Collaboration Tools
- Team member invitations
- Comment system
- Activity feed
- Notifications

Feature 8: Analytics
- Business plan progress tracking
- AI interaction analytics
- User engagement metrics
- Export reports

================================================================================
4. ARCHITECTURE DESIGN
================================================================================

4.1 SYSTEM ARCHITECTURE
-----------------------

┌─────────────────────────────────────────────────────────────┐
│                     CLIENT LAYER                             │
│  ┌──────────────────────────────────────────────────────┐  │
│  │  React 18 + TypeScript + Vite                        │  │
│  │  - UI Components (shadcn/ui + Radix UI)              │  │
│  │  - State Management (React Query + Context API)      │  │
│  │  - Routing (React Router v7)                         │  │
│  │  - Styling (TailwindCSS)                             │  │
│  └──────────────────────────────────────────────────────┘  │
└─────────────────────────────────────────────────────────────┘
                            ↕ HTTPS/WSS
┌─────────────────────────────────────────────────────────────┐
│                     API LAYER                                │
│  ┌──────────────────────────────────────────────────────┐  │
│  │  Express.js + TypeScript                             │  │
│  │  - RESTful API Endpoints                             │  │
│  │  - WebSocket Server (Socket.io)                      │  │
│  │  - Authentication Middleware                         │  │
│  │  - Rate Limiting & Security (Helmet)                 │  │
│  └──────────────────────────────────────────────────────┘  │
└─────────────────────────────────────────────────────────────┘
                            ↕
┌─────────────────────────────────────────────────────────────┐
│                  BUSINESS LOGIC LAYER                        │
│  ┌──────────────────────────────────────────────────────┐  │
│  │  Services & Controllers                              │  │
│  │  - Business Plan Service                             │  │
│  │  - AI Service (Azure OpenAI)                         │  │
│  │  - User Service                                      │  │
│  │  - Document Service                                  │  │
│  │  - Analytics Service                                 │  │
│  └──────────────────────────────────────────────────────┘  │
└─────────────────────────────────────────────────────────────┘
                            ↕
┌─────────────────────────────────────────────────────────────┐
│                    DATA LAYER                                │
│  ┌──────────────┐  ┌──────────────┐  ┌──────────────┐     │
│  │   MongoDB    │  │ Azure Cosmos │  │ Azure Blob   │     │
│  │   (Local)    │  │      DB      │  │   Storage    │     │
│  │              │  │              │  │              │     │
│  │  Business    │  │  Production  │  │  Documents   │     │
│  │  Plans       │  │  Data        │  │  & Files     │     │
│  │  Users       │  │              │  │              │     │
│  └──────────────┘  └──────────────┘  └──────────────┘     │
└─────────────────────────────────────────────────────────────┘
                            ↕
┌─────────────────────────────────────────────────────────────┐
│                 EXTERNAL SERVICES                            │
│  ┌──────────────┐  ┌──────────────┐  ┌──────────────┐     │
│  │ Azure OpenAI │  │  Google      │  │  Azure AD    │     │
│  │              │  │  OAuth       │  │              │     │
│  │  GPT-4       │  │              │  │  Auth        │     │
│  │  Embeddings  │  │  Auth        │  │              │     │
│  └──────────────┘  └──────────────┘  └──────────────┘     │
└─────────────────────────────────────────────────────────────┘

4.2 ARCHITECTURAL PATTERNS
--------------------------
- Client-Server Architecture
- RESTful API Design
- MVC Pattern (Model-View-Controller)
- Repository Pattern for Data Access
- Service Layer Pattern
- Dependency Injection
- Event-Driven Architecture (WebSockets)

4.3 DESIGN PRINCIPLES
---------------------
- Separation of Concerns
- Single Responsibility Principle
- DRY (Don't Repeat Yourself)
- SOLID Principles
- API-First Design
- Mobile-First Responsive Design
- Progressive Enhancement

================================================================================
5. COMPONENT DESIGN
================================================================================

5.1 FRONTEND COMPONENTS
-----------------------

5.1.1 Core Pages
├── Landing Page (/)
│   ├── Hero Section
│   ├── Features Overview
│   ├── Pricing (Future)
│   └── CTA Buttons
│
├── Authentication (/auth)
│   ├── Login Page
│   ├── Register Page
│   ├── OAuth Callbacks
│   └── Password Reset
│
├── Dashboard (/dashboard)
│   ├── Overview Cards
│   ├── Recent Plans
│   ├── AI Insights
│   └── Quick Actions
│
├── Business Plans (/plans)
│   ├── Plans List
│   ├── Plan Editor
│   ├── Section Navigator
│   └── AI Assistant Panel
│
├── Financial Modeling (/financials)
│   ├── Revenue Projections
│   ├── Expense Tracker
│   ├── Cash Flow Chart
│   └── Financial Reports
│
└── Settings (/settings)
    ├── Profile Management
    ├── Team Members
    ├── Preferences
    └── Billing (Future)

5.1.2 Reusable Components
- Button, Input, Select, Checkbox (shadcn/ui)
- Modal, Dialog, Dropdown
- Card, Table, Tabs
- Chart Components (Recharts)
- Form Components (React Hook Form)
- Loading States & Skeletons
- Error Boundaries
- Toast Notifications

5.2 BACKEND COMPONENTS
----------------------

5.2.1 API Routes Structure
/api
├── /auth
│   ├── POST /login
│   ├── POST /register
│   ├── POST /logout
│   ├── GET /google
│   ├── GET /azure
│   └── POST /refresh-token
│
├── /users
│   ├── GET /me
│   ├── PATCH /me
│   ├── GET /:id
│   └── DELETE /:id
│
├── /business-plans
│   ├── GET /
│   ├── POST /
│   ├── GET /:id
│   ├── PATCH /:id
│   ├── DELETE /:id
│   └── POST /:id/export
│
├── /business-plans/:planId/sections
│   ├── GET /
│   ├── POST /
│   ├── PATCH /:sectionId
│   └── DELETE /:sectionId
│
├── /business-plans/:planId/financial-data
│   ├── GET /
│   ├── POST /
│   └── PATCH /:id
│
├── /ai-agents
│   ├── POST /business-advisor/chat
│   ├── POST /analyze-plan
│   ├── POST /generate-section
│   └── POST /market-analysis
│
└── /documents
    ├── POST /upload
    ├── GET /:id
    ├── DELETE /:id
    └── GET /list

5.2.2 Service Layer
- AuthService: Authentication & authorization
- UserService: User management
- BusinessPlanService: Business plan CRUD
- AIService: Azure OpenAI integration
- DocumentService: File management
- AnalyticsService: Usage tracking
- EmailService: Notifications (Future)

5.2.3 Middleware
- isAuthenticated: JWT/Session validation
- rateLimiter: API rate limiting
- errorHandler: Global error handling
- requestLogger: Request logging
- corsHandler: CORS configuration
- helmetSecurity: Security headers

================================================================================
6. DATA DESIGN
================================================================================

6.1 DATABASE SCHEMA (MongoDB)
------------------------------

6.1.1 Users Collection
{
  _id: ObjectId,
  email: String (unique, indexed),
  firstName: String,
  lastName: String,
  profileImageUrl: String?,
  userType: Enum['ENTREPRENEUR', 'ADMIN'],
  authProvider: Enum['google', 'azure', 'local'],
  authProviderId: String?,
  passwordHash: String?,
  emailVerified: Boolean,
  createdAt: Date,
  updatedAt: Date,
  lastLoginAt: Date?,
  preferences: {
    theme: String,
    notifications: Boolean,
    language: String
  },
  subscription: {
    plan: Enum['free', 'pro', 'enterprise'],
    status: Enum['active', 'cancelled', 'expired'],
    expiresAt: Date?
  }
}

6.1.2 BusinessPlans Collection
{
  _id: ObjectId,
  userId: ObjectId (ref: Users, indexed),
  title: String,
  description: String?,
  industry: String?,
  stage: Enum['idea', 'prototype', 'mvp', 'growth', 'scale'],
  status: Enum['draft', 'in_progress', 'completed', 'archived'],
  visibility: Enum['private', 'team', 'public'],
  createdAt: Date,
  updatedAt: Date,
  lastEditedAt: Date,
  completionPercentage: Number,
  sections: [{
    id: String,
    title: String,
    content: String,
    order: Number,
    status: Enum['empty', 'draft', 'completed'],
    aiGenerated: Boolean,
    lastEditedAt: Date
  }],
  metadata: {
    targetMarket: String?,
    businessModel: String?,
    fundingGoal: Number?,
    teamSize: Number?
  }
}

6.1.3 FinancialData Collection
{
  _id: ObjectId,
  businessPlanId: ObjectId (ref: BusinessPlans, indexed),
  year: Number,
  projections: {
    revenue: {
      total: Number,
      breakdown: [{
        category: String,
        amount: Number
      }]
    },
    expenses: {
      total: Number,
      breakdown: [{
        category: String,
        amount: Number
      }]
    },
    profit: Number,
    cashFlow: Number,
    margins: {
      gross: Number,
      net: Number
    }
  },
  assumptions: [{
    key: String,
    value: String,
    description: String
  }],
  createdAt: Date,
  updatedAt: Date
}

6.1.4 AIInteractions Collection
{
  _id: ObjectId,
  userId: ObjectId (ref: Users, indexed),
  businessPlanId: ObjectId? (ref: BusinessPlans),
  agentType: String,
  conversationId: String (indexed),
  messages: [{
    role: Enum['user', 'assistant', 'system'],
    content: String,
    timestamp: Date,
    metadata: Object?
  }],
  context: Object,
  createdAt: Date,
  updatedAt: Date
}

6.1.5 Documents Collection
{
  _id: ObjectId,
  userId: ObjectId (ref: Users, indexed),
  businessPlanId: ObjectId? (ref: BusinessPlans),
  filename: String,
  originalName: String,
  mimeType: String,
  size: Number,
  storageUrl: String,
  category: String?,
  tags: [String],
  uploadedAt: Date,
  metadata: {
    description: String?,
    version: Number?
  }
}

6.2 DATA RELATIONSHIPS
----------------------
- One User → Many BusinessPlans
- One BusinessPlan → Many FinancialData (by year)
- One BusinessPlan → Many Documents
- One User → Many AIInteractions
- One User → Many Documents

6.3 INDEXING STRATEGY
---------------------
Users:
- email (unique)
- authProviderId (sparse)

BusinessPlans:
- userId
- status
- createdAt (descending)

FinancialData:
- businessPlanId
- year

AIInteractions:
- userId
- conversationId
- createdAt (descending)

Documents:
- userId
- businessPlanId
- uploadedAt (descending)

================================================================================
7. API DESIGN
================================================================================

7.1 API STANDARDS
-----------------
- RESTful principles
- JSON request/response format
- JWT authentication
- Versioning: /api/v1/...
- HTTP status codes (200, 201, 400, 401, 403, 404, 500)
- Pagination for list endpoints
- Rate limiting: 100 requests/15 minutes

7.2 KEY ENDPOINTS (MVP)
-----------------------

7.2.1 Authentication
POST /api/auth/register
Request:
{
  "email": "user@example.com",
  "password": "SecurePass123!",
  "firstName": "John",
  "lastName": "Doe"
}
Response: 201 Created
{
  "user": { ... },
  "token": "jwt_token_here"
}

POST /api/auth/login
Request:
{
  "email": "user@example.com",
  "password": "SecurePass123!"
}
Response: 200 OK
{
  "user": { ... },
  "token": "jwt_token_here"
}

7.2.2 Business Plans
GET /api/business-plans
Query Params: ?page=1&limit=10&status=draft
Response: 200 OK
{
  "plans": [...],
  "pagination": {
    "total": 25,
    "page": 1,
    "limit": 10,
    "pages": 3
  }
}

POST /api/business-plans
Request:
{
  "title": "My Startup Idea",
  "description": "Revolutionary product...",
  "industry": "Technology",
  "stage": "idea"
}
Response: 201 Created
{
  "id": "plan_id",
  "title": "My Startup Idea",
  ...
}

PATCH /api/business-plans/:id
Request:
{
  "title": "Updated Title",
  "sections": [...]
}
Response: 200 OK

7.2.3 AI Business Advisor
POST /api/ai-agents/business-advisor/chat
Request:
{
  "message": "Help me analyze my target market",
  "businessPlanId": "plan_id",
  "conversationId": "conv_123"
}
Response: 200 OK
{
  "response": "Based on your business plan...",
  "suggestions": [...],
  "conversationId": "conv_123"
}

POST /api/ai-agents/analyze-plan
Request:
{
  "businessPlanId": "plan_id"
}
Response: 200 OK
{
  "overallScore": 7.5,
  "strengths": [...],
  "weaknesses": [...],
  "recommendations": [...]
}

7.3 ERROR RESPONSES
-------------------
Standard error format:
{
  "error": {
    "code": "VALIDATION_ERROR",
    "message": "Invalid input data",
    "details": [...]
  }
}

Error Codes:
- VALIDATION_ERROR (400)
- UNAUTHORIZED (401)
- FORBIDDEN (403)
- NOT_FOUND (404)
- RATE_LIMIT_EXCEEDED (429)
- INTERNAL_SERVER_ERROR (500)

================================================================================
8. SECURITY DESIGN
================================================================================

8.1 AUTHENTICATION & AUTHORIZATION
-----------------------------------
- JWT tokens with 24-hour expiration
- Refresh tokens with 7-day expiration
- OAuth 2.0 (Google, Azure AD)
- Password hashing with bcrypt (12 rounds)
- Session management with secure cookies
- CSRF protection

8.2 DATA SECURITY
-----------------
- HTTPS only (TLS 1.3)
- Environment variables for secrets
- Azure Key Vault for production secrets
- Database connection encryption
- Input validation and sanitization
- SQL injection prevention (MongoDB parameterized queries)
- XSS protection (Content Security Policy)

8.3 API SECURITY
----------------
- Rate limiting (express-rate-limit)
- Helmet.js for security headers
- CORS configuration
- Request size limits
- API key rotation policy
- Audit logging

8.4 COMPLIANCE
--------------
- GDPR compliance (data privacy)
- User data export capability
- Right to be forgotten (account deletion)
- Privacy policy and terms of service
- Cookie consent management

================================================================================
9. DEPLOYMENT ARCHITECTURE
================================================================================

9.1 DEVELOPMENT ENVIRONMENT
---------------------------
- Local MongoDB instance
- Node.js 20.x
- npm/pnpm package manager
- Environment: .env file
- Port: 3001 (configurable)

9.2 STAGING ENVIRONMENT
-----------------------
- Azure App Service (Standard tier)
- Azure Cosmos DB (MongoDB API)
- Azure Blob Storage
- Azure Application Insights
- Environment variables via Azure Portal

9.3 PRODUCTION ENVIRONMENT
--------------------------
- Azure App Service (Premium tier)
- Azure Cosmos DB with geo-replication
- Azure CDN for static assets
- Azure Front Door for load balancing
- Azure Monitor & Application Insights
- Auto-scaling enabled

9.4 CI/CD PIPELINE
------------------
Build Process:
1. Code commit to GitHub
2. GitHub Actions trigger
3. Run tests (Jest)
4. Type checking (TypeScript)
5. Linting (ESLint)
6. Build frontend (Vite)
7. Build backend (esbuild)
8. Create Docker image (optional)
9. Deploy to Azure App Service

Deployment Strategy:
- Blue-Green deployment
- Automated rollback on failure
- Health checks before traffic switch
- Database migrations (pre-deployment)

================================================================================
10. TECHNOLOGY STACK
================================================================================

10.1 FRONTEND
-------------
Core:
- React 18.3.1
- TypeScript 5.6.3
- Vite 5.4.14

UI Framework:
- TailwindCSS 3.4.14
- shadcn/ui components
- Radix UI primitives
- Lucide React icons
- Framer Motion (animations)

State Management:
- React Query (TanStack Query) 5.60.5
- React Context API
- React Hook Form 7.53.1

Routing:
- React Router v7.9.3

Charts & Visualization:
- Recharts 2.13.0

10.2 BACKEND
------------
Runtime:
- Node.js 20.x
- TypeScript 5.6.3

Framework:
- Express.js 4.21.2
- tsx 4.19.1 (development)

Authentication:
- Passport.js 0.7.0
- passport-google-oauth20
- @azure/msal-node 3.8.0

Database:
- MongoDB 6.20.0
- Mongoose 8.18.2

AI Integration:
- OpenAI SDK 4.104.0
- Azure OpenAI

Real-time:
- Socket.io 4.8.1
- WebSocket (ws) 8.18.0

Security:
- Helmet 8.1.0
- express-rate-limit 8.1.0
- express-session 1.18.1

Validation:
- Zod 3.23.8

10.3 DEVOPS & TOOLS
-------------------
Testing:
- Jest 29.7.0
- @testing-library/react 14.1.2
- ts-jest 29.1.1

Code Quality:
- ESLint 8.56.0
- Prettier 3.1.0
- Husky 8.0.3 (git hooks)

Build Tools:
- esbuild 0.21.5
- PostCSS 8.4.47
- Autoprefixer 10.4.20

Monitoring:
- Azure Application Insights
- Winston (logging)

10.4 CLOUD SERVICES (AZURE)
----------------------------
- Azure App Service
- Azure Cosmos DB (MongoDB API)
- Azure Blob Storage
- Azure OpenAI Service
- Azure Key Vault
- Azure Application Insights
- Azure CDN
- Azure Front Door

================================================================================
11. DEVELOPMENT ROADMAP
================================================================================

11.1 MVP TIMELINE (8 WEEKS)
---------------------------

WEEK 1-2: Foundation & Authentication
- Project setup and configuration
- Database schema implementation
- User authentication (Google OAuth, Azure AD)
- Basic user profile management
- Landing page and navigation

WEEK 3-4: Business Plan Core Features
- Business plan CRUD operations
- Section-based editor
- Auto-save functionality
- Basic version history
- Dashboard overview

WEEK 5-6: AI Integration & Financial Tools
- Azure OpenAI integration
- AI Business Advisor chat interface
- Business plan analysis
- Financial projections calculator
- Revenue/expense tracking

WEEK 7: Polish & Testing
- UI/UX refinements
- Comprehensive testing
- Bug fixes
- Performance optimization
- Documentation

WEEK 8: Deployment & Launch
- Production deployment
- Monitoring setup
- User onboarding flow
- Beta user testing
- Launch preparation

11.2 POST-MVP ROADMAP
---------------------

PHASE 2 (Weeks 9-12): Enhanced Features
- Document management system
- Team collaboration tools
- Advanced analytics
- Export capabilities (PDF, DOCX)
- Email notifications

PHASE 3 (Weeks 13-16): Investor Features
- Investor dashboard
- Deal flow management
- Investment analysis tools
- Portfolio tracking

PHASE 4 (Weeks 17-20): Design Thinking Integration
- Empathy mapping tools
- User journey builder
- Prototype testing framework
- Innovation metrics

PHASE 5 (Weeks 21-24): Mobile & Advanced AI
- Mobile responsive optimization
- PWA capabilities
- Multiple AI agent types
- Advanced AI features

================================================================================
12. TESTING STRATEGY
================================================================================

12.1 TESTING LEVELS
-------------------

Unit Testing:
- Framework: Jest
- Coverage Target: 80%+
- Focus: Business logic, utilities, services
- Tools: @testing-library/react, ts-jest

Integration Testing:
- API endpoint testing
- Database operations
- External service mocks
- Authentication flows

End-to-End Testing:
- Framework: Playwright (Future)
- Critical user journeys
- Cross-browser testing
- Automated regression tests

12.2 TEST CATEGORIES
--------------------

Frontend Tests:
✓ Component rendering
✓ User interactions
✓ Form validation
✓ State management
✓ API integration

Backend Tests:
✓ API endpoints
✓ Authentication middleware
✓ Database operations
✓ Business logic
✓ Error handling

AI Service Tests:
✓ OpenAI integration
✓ Response parsing
✓ Error handling
✓ Rate limiting

12.3 TESTING CHECKLIST
----------------------
□ All API endpoints have tests
□ Critical user flows tested
□ Error scenarios covered
□ Security vulnerabilities checked
□ Performance benchmarks met
□ Accessibility standards (WCAG 2.1)
□ Cross-browser compatibility
□ Mobile responsiveness

================================================================================
13. PERFORMANCE REQUIREMENTS
================================================================================

13.1 RESPONSE TIME TARGETS
---------------------------
- Page Load: < 2 seconds (initial)
- API Response: < 500ms (average)
- AI Response: < 5 seconds
- Database Queries: < 100ms
- File Upload: < 3 seconds (10MB)

13.2 SCALABILITY TARGETS
------------------------
- Concurrent Users: 100+ (MVP)
- Concurrent Users: 1,000+ (6 months)
- Database Size: 10GB+ (MVP)
- API Throughput: 1,000 req/min
- WebSocket Connections: 100+ simultaneous

13.3 OPTIMIZATION STRATEGIES
----------------------------
Frontend:
- Code splitting and lazy loading
- Image optimization (WebP, lazy loading)
- CDN for static assets
- Browser caching
- Minification and compression

Backend:
- Database indexing
- Query optimization
- Caching (Redis - future)
- Connection pooling
- API response compression

13.4 MONITORING METRICS
-----------------------
- Application Performance Index (Apdex)
- Error rate < 1%
- Uptime > 99%
- Mean Time To Recovery (MTTR) < 1 hour
- Database query performance
- API endpoint latency

================================================================================
14. MAINTENANCE & SUPPORT
================================================================================

14.1 MAINTENANCE PLAN
---------------------
Daily:
- Monitor error logs
- Check system health
- Review user feedback

Weekly:
- Security updates
- Dependency updates
- Performance review
- Backup verification

Monthly:
- Feature releases
- Bug fix releases
- Security audits
- Performance optimization

Quarterly:
- Major version updates
- Architecture review
- Capacity planning
- User satisfaction survey

14.2 SUPPORT CHANNELS
---------------------
MVP Support:
- Email support: support@iterativstartups.com
- Documentation: docs.iterativstartups.com
- FAQ and knowledge base
- In-app help center

Post-MVP:
- Live chat support
- Community forum
- Video tutorials
- Webinars and training

14.3 INCIDENT RESPONSE
----------------------
Severity Levels:
- P0 (Critical): System down - 1 hour response
- P1 (High): Major feature broken - 4 hour response
- P2 (Medium): Minor issue - 24 hour response
- P3 (Low): Enhancement request - 1 week response

On-Call Rotation:
- 24/7 monitoring (production)
- Automated alerts
- Escalation procedures
- Post-mortem analysis

14.4 DOCUMENTATION
------------------
Technical Documentation:
✓ API documentation (OpenAPI/Swagger)
✓ Database schema documentation
✓ Architecture diagrams
✓ Deployment guides
✓ Troubleshooting guides

User Documentation:
✓ Quick start guide
✓ User manual
✓ Video tutorials
✓ FAQ section
✓ Best practices guide

Developer Documentation:
✓ Setup instructions
✓ Coding standards
✓ Contribution guidelines
✓ Testing guidelines
✓ Release process

================================================================================
APPENDICES
================================================================================

A. GLOSSARY
-----------
MVP: Minimum Viable Product
API: Application Programming Interface
REST: Representational State Transfer
JWT: JSON Web Token
CRUD: Create, Read, Update, Delete
OAuth: Open Authorization
AI: Artificial Intelligence
UI/UX: User Interface/User Experience
CI/CD: Continuous Integration/Continuous Deployment

B. REFERENCES
-------------
- React Documentation: https://react.dev
- Express.js Guide: https://expressjs.com
- MongoDB Manual: https://docs.mongodb.com
- Azure Documentation: https://docs.microsoft.com/azure
- OpenAI API Reference: https://platform.openai.com/docs

C. REVISION HISTORY
-------------------
Version 1.0.0 - October 11, 2025
- Initial MVP Software Design Document
- Complete architecture and component design
- Technology stack finalization
- Development roadmap established

================================================================================
END OF DOCUMENT
================================================================================

For questions or clarifications, contact:
Development Team: dev@iterativstartups.com
Project Manager: pm@iterativstartups.com

Document Status: APPROVED FOR DEVELOPMENT
Next Review Date: November 11, 2025
